; Engine configuration file.
; It's best edited using the editor UI and not directly,
; since the parameters that go here are not all obvious.
;
; Format:
;   [section] ; section goes between []
;   param=value ; assign values to parameters

config_version=4

[application]

config/name="Keebie GUI"
run/main_scene="res://scenes/Main.tscn"
config/icon="res://icon.png"

[autoload]

Plugins="*res://scripts/PluginsSingleton.gd"

[display]

window/size/width=1325
window/size/height=650

[editor_plugins]

enabled=PoolStringArray( "res://addons/Todo_Manager/plugin.cfg" )

[gui]

theme/custom_font="res://resources/fonts/Roboto/RobotoBig.tres"

[physics]

common/enable_pause_aware_picking=true

[rendering]

environment/default_clear_color=Color( 0.12549, 0.145098, 0.192157, 1 )
environment/default_environment="res://resources/default_env.tres"
