{
	"title": "Firefox",
	"options": {
		"Open a webpage": {
			"parameters": [
				{
					"type": "LineEdit",
					"arguments": {
						"placeholder_text": "URL"
					}
				}
			],
			"command": "{0}"
		}
	},
	"base_command": "firefox",
	"settings": {
	}
}